<?xml version="1.0" encoding="utf-8"  standalone="no"?>
<svg 
 width="750" height="750"
 viewBox="0 0 750 750"
 xmlns="http://www.w3.org/2000/svg"
 xmlns:xlink="http://www.w3.org/1999/xlink"
>

<title>Gnuplot</title>
<desc>Produced by GNUPLOT 5.4 patchlevel 1 </desc>

<g id="gnuplot_canvas">

<rect x="0" y="0" width="750" height="750" fill="none"/>
<defs>

	<circle id='gpDot' r='0.5' stroke-width='0.5' stroke='currentColor'/>
	<path id='gpPt0' stroke-width='0.089' stroke='currentColor' d='M-1,0 h2 M0,-1 v2'/>
	<path id='gpPt1' stroke-width='0.089' stroke='currentColor' d='M-1,-1 L1,1 M1,-1 L-1,1'/>
	<path id='gpPt2' stroke-width='0.089' stroke='currentColor' d='M-1,0 L1,0 M0,-1 L0,1 M-1,-1 L1,1 M-1,1 L1,-1'/>
	<rect id='gpPt3' stroke-width='0.089' stroke='currentColor' x='-1' y='-1' width='2' height='2'/>
	<rect id='gpPt4' stroke-width='0.089' stroke='currentColor' fill='currentColor' x='-1' y='-1' width='2' height='2'/>
	<circle id='gpPt5' stroke-width='0.089' stroke='currentColor' cx='0' cy='0' r='1'/>
	<use xlink:href='#gpPt5' id='gpPt6' fill='currentColor' stroke='none'/>
	<path id='gpPt7' stroke-width='0.089' stroke='currentColor' d='M0,-1.33 L-1.33,0.67 L1.33,0.67 z'/>
	<use xlink:href='#gpPt7' id='gpPt8' fill='currentColor' stroke='none'/>
	<use xlink:href='#gpPt7' id='gpPt9' stroke='currentColor' transform='rotate(180)'/>
	<use xlink:href='#gpPt9' id='gpPt10' fill='currentColor' stroke='none'/>
	<use xlink:href='#gpPt3' id='gpPt11' stroke='currentColor' transform='rotate(45)'/>
	<use xlink:href='#gpPt11' id='gpPt12' fill='currentColor' stroke='none'/>
	<path id='gpPt13' stroke-width='0.089' stroke='currentColor' d='M0,1.330 L1.265,0.411 L0.782,-1.067 L-0.782,-1.076 L-1.265,0.411 z'/>
	<use xlink:href='#gpPt13' id='gpPt14' fill='currentColor' stroke='none'/>
	<filter id='textbox' filterUnits='objectBoundingBox' x='0' y='0' height='1' width='1'>
	  <feFlood flood-color='white' flood-opacity='1' result='bgnd'/>
	  <feComposite in='SourceGraphic' in2='bgnd' operator='atop'/>
	</filter>
	<filter id='greybox' filterUnits='objectBoundingBox' x='0' y='0' height='1' width='1'>
	  <feFlood flood-color='lightgrey' flood-opacity='1' result='grey'/>
	  <feComposite in='SourceGraphic' in2='grey' operator='atop'/>
	</filter>
</defs>
<g fill="none" color="white" stroke="currentColor" stroke-width="1.00" stroke-linecap="butt" stroke-linejoin="miter">
</g>
<g fill="none" color="black" stroke="currentColor" stroke-width="1.00" stroke-linecap="butt" stroke-linejoin="miter">
</g>
	<g id="gnuplot_plot_1" ><title>gnuplot_plot_1</title>
<g fill="none" color="black" stroke="currentColor" stroke-width="1.00" stroke-linecap="butt" stroke-linejoin="miter">
	<g stroke='none' shape-rendering='crispEdges'>
		<polygon fill = 'rgb(208, 255, 208)' points = '122.17,584.56 153.78,584.56 153.78,468.53 122.17,468.53 '/>
		<polygon fill = 'rgb(208, 255, 208)' points = '153.78,584.56 185.38,584.56 185.38,468.53 153.78,468.53 '/>
		<polygon fill = 'rgb(208, 255, 208)' points = '185.38,584.56 216.99,584.56 216.99,468.53 185.38,468.53 '/>
		<polygon fill = 'rgb(147, 255, 147)' points = '216.99,584.56 248.59,584.56 248.59,468.53 216.99,468.53 '/>
		<polygon fill = 'rgb(208, 255, 208)' points = '248.59,584.56 280.19,584.56 280.19,468.53 248.59,468.53 '/>
		<polygon fill = 'rgb(208, 255, 208)' points = '280.19,584.56 311.80,584.56 311.80,468.53 280.19,468.53 '/>
		<polygon fill = 'rgb(208, 255, 208)' points = '311.80,584.56 343.40,584.56 343.40,468.53 311.80,468.53 '/>
		<polygon fill = 'rgb(208, 255, 208)' points = '343.40,584.56 375.00,584.56 375.00,468.53 343.40,468.53 '/>
		<polygon fill = 'rgb(208, 255, 208)' points = '375.00,584.56 406.60,584.56 406.60,468.53 375.00,468.53 '/>
		<polygon fill = 'rgb(208, 255, 208)' points = '406.60,584.56 438.20,584.56 438.20,468.53 406.60,468.53 '/>
		<polygon fill = 'rgb(208, 255, 208)' points = '438.20,584.56 469.81,584.56 469.81,468.53 438.20,468.53 '/>
		<polygon fill = 'rgb(208, 255, 208)' points = '469.81,584.56 501.41,584.56 501.41,468.53 469.81,468.53 '/>
		<polygon fill = 'rgb(208, 255, 208)' points = '501.41,584.56 533.01,584.56 533.01,468.53 501.41,468.53 '/>
		<polygon fill = 'rgb(208, 255, 208)' points = '533.01,584.56 564.62,584.56 564.62,468.53 533.01,468.53 '/>
		<polygon fill = 'rgb(147, 255, 147)' points = '564.62,584.56 596.22,584.56 596.22,468.53 564.62,468.53 '/>
		<polygon fill = 'rgb(208, 255, 208)' points = '596.22,584.56 627.83,584.56 627.83,468.53 596.22,468.53 '/>
		<polygon fill = 'rgb(208, 255, 208)' points = '122.17,468.53 153.78,468.53 153.78,352.50 122.17,352.50 '/>
		<polygon fill = 'rgb(208, 255, 208)' points = '153.78,468.53 185.38,468.53 185.38,352.50 153.78,352.50 '/>
		<polygon fill = 'rgb(147, 255, 147)' points = '185.38,468.53 216.99,468.53 216.99,352.50 185.38,352.50 '/>
		<polygon fill = 'rgb(208, 255, 208)' points = '216.99,468.53 248.59,468.53 248.59,352.50 216.99,352.50 '/>
		<polygon fill = 'rgb(208, 255, 208)' points = '248.59,468.53 280.19,468.53 280.19,352.50 248.59,352.50 '/>
		<polygon fill = 'rgb(208, 255, 208)' points = '280.19,468.53 311.80,468.53 311.80,352.50 280.19,352.50 '/>
		<polygon fill = 'rgb(208, 255, 208)' points = '311.80,468.53 343.40,468.53 343.40,352.50 311.80,352.50 '/>
		<polygon fill = 'rgb(208, 255, 208)' points = '343.40,468.53 375.00,468.53 375.00,352.50 343.40,352.50 '/>
		<polygon fill = 'rgb(208, 255, 208)' points = '375.00,468.53 406.60,468.53 406.60,352.50 375.00,352.50 '/>
		<polygon fill = 'rgb(147, 255, 147)' points = '406.60,468.53 438.20,468.53 438.20,352.50 406.60,352.50 '/>
		<polygon fill = 'rgb(147, 255, 147)' points = '438.20,468.53 469.81,468.53 469.81,352.50 438.20,352.50 '/>
		<polygon fill = 'rgb(  0, 255,   0)' points = '469.81,468.53 501.41,468.53 501.41,352.50 469.81,352.50 '/>
		<polygon fill = 'rgb(147, 255, 147)' points = '501.41,468.53 533.01,468.53 533.01,352.50 501.41,352.50 '/>
		<polygon fill = 'rgb(208, 255, 208)' points = '533.01,468.53 564.62,468.53 564.62,352.50 533.01,352.50 '/>
		<polygon fill = 'rgb(147, 255, 147)' points = '564.62,468.53 596.22,468.53 596.22,352.50 564.62,352.50 '/>
		<polygon fill = 'rgb(208, 255, 208)' points = '596.22,468.53 627.83,468.53 627.83,352.50 596.22,352.50 '/>
		<polygon fill = 'rgb(255, 255, 255)' points = '122.17,352.50 153.78,352.50 153.78,236.47 122.17,236.47 '/>
		<polygon fill = 'rgb(255, 255, 255)' points = '153.78,352.50 185.38,352.50 185.38,236.47 153.78,236.47 '/>
		<polygon fill = 'rgb(255, 255, 255)' points = '185.38,352.50 216.99,352.50 216.99,236.47 185.38,236.47 '/>
		<polygon fill = 'rgb(255, 255, 255)' points = '216.99,352.50 248.59,352.50 248.59,236.47 216.99,236.47 '/>
		<polygon fill = 'rgb(255, 255, 255)' points = '248.59,352.50 280.19,352.50 280.19,236.47 248.59,236.47 '/>
		<polygon fill = 'rgb(255, 255, 255)' points = '280.19,352.50 311.80,352.50 311.80,236.47 280.19,236.47 '/>
		<polygon fill = 'rgb(255, 255, 255)' points = '311.80,352.50 343.40,352.50 343.40,236.47 311.80,236.47 '/>
		<polygon fill = 'rgb(255, 255, 255)' points = '343.40,352.50 375.00,352.50 375.00,236.47 343.40,236.47 '/>
		<polygon fill = 'rgb(255, 255, 255)' points = '375.00,352.50 406.60,352.50 406.60,236.47 375.00,236.47 '/>
		<polygon fill = 'rgb(255, 255, 255)' points = '406.60,352.50 438.20,352.50 438.20,236.47 406.60,236.47 '/>
		<polygon fill = 'rgb(255, 255, 255)' points = '438.20,352.50 469.81,352.50 469.81,236.47 438.20,236.47 '/>
		<polygon fill = 'rgb(255, 255, 255)' points = '469.81,352.50 501.41,352.50 501.41,236.47 469.81,236.47 '/>
		<polygon fill = 'rgb(255, 255, 255)' points = '501.41,352.50 533.01,352.50 533.01,236.47 501.41,236.47 '/>
		<polygon fill = 'rgb(255, 255, 255)' points = '533.01,352.50 564.62,352.50 564.62,236.47 533.01,236.47 '/>
		<polygon fill = 'rgb(255, 255, 255)' points = '564.62,352.50 596.22,352.50 596.22,236.47 564.62,236.47 '/>
		<polygon fill = 'rgb(255, 255, 255)' points = '596.22,352.50 627.83,352.50 627.83,236.47 596.22,236.47 '/>
		<polygon fill = 'rgb(208, 255, 208)' points = '122.17,236.47 153.78,236.47 153.78,120.44 122.17,120.44 '/>
		<polygon fill = 'rgb(208, 255, 208)' points = '153.78,236.47 185.38,236.47 185.38,120.44 153.78,120.44 '/>
		<polygon fill = 'rgb(208, 255, 208)' points = '185.38,236.47 216.99,236.47 216.99,120.44 185.38,120.44 '/>
		<polygon fill = 'rgb(208, 255, 208)' points = '216.99,236.47 248.59,236.47 248.59,120.44 216.99,120.44 '/>
		<polygon fill = 'rgb(208, 255, 208)' points = '248.59,236.47 280.19,236.47 280.19,120.44 248.59,120.44 '/>
		<polygon fill = 'rgb(208, 255, 208)' points = '280.19,236.47 311.80,236.47 311.80,120.44 280.19,120.44 '/>
		<polygon fill = 'rgb(147, 255, 147)' points = '311.80,236.47 343.40,236.47 343.40,120.44 311.80,120.44 '/>
		<polygon fill = 'rgb(208, 255, 208)' points = '343.40,236.47 375.00,236.47 375.00,120.44 343.40,120.44 '/>
		<polygon fill = 'rgb(  0, 255,   0)' points = '375.00,236.47 406.60,236.47 406.60,120.44 375.00,120.44 '/>
		<polygon fill = 'rgb(208, 255, 208)' points = '406.60,236.47 438.20,236.47 438.20,120.44 406.60,120.44 '/>
		<polygon fill = 'rgb(208, 255, 208)' points = '438.20,236.47 469.81,236.47 469.81,120.44 438.20,120.44 '/>
		<polygon fill = 'rgb(208, 255, 208)' points = '469.81,236.47 501.41,236.47 501.41,120.44 469.81,120.44 '/>
		<polygon fill = 'rgb(208, 255, 208)' points = '501.41,236.47 533.01,236.47 533.01,120.44 501.41,120.44 '/>
		<polygon fill = 'rgb(147, 255, 147)' points = '533.01,236.47 564.62,236.47 564.62,120.44 533.01,120.44 '/>
		<polygon fill = 'rgb(208, 255, 208)' points = '564.62,236.47 596.22,236.47 596.22,120.44 564.62,120.44 '/>
		<polygon fill = 'rgb(208, 255, 208)' points = '596.22,236.47 627.83,236.47 627.83,120.44 596.22,120.44 '/>
	</g>
</g>
	</g>
<g fill="none" color="black" stroke="currentColor" stroke-width="1.00" stroke-linecap="butt" stroke-linejoin="miter">
	<path stroke='black'  d='M122.17,120.44 L122.17,584.56 L627.83,584.56 L627.83,120.44 L122.17,120.44 Z  '/></g>
<g fill="none" color="black" stroke="currentColor" stroke-width="1.00" stroke-linecap="butt" stroke-linejoin="miter">
	<path stroke='black'  d='M137.97,584.57  '/></g>
<g fill="none" color="black" stroke="currentColor" stroke-width="1.00" stroke-linecap="butt" stroke-linejoin="miter">
	<path stroke='black'  d='M137.97,120.44  '/>	<g transform="translate(147.73,663.98) rotate(-90)" stroke="none" fill="black" font-family="Helvetica" font-size="30.00"  text-anchor="middle">
		<text><tspan font-family="Helvetica" >obr</tspan></text>
	</g>
</g>
<g fill="none" color="black" stroke="currentColor" stroke-width="1.00" stroke-linecap="butt" stroke-linejoin="miter">
</g>
<g fill="none" color="black" stroke="currentColor" stroke-width="1.00" stroke-linecap="butt" stroke-linejoin="miter">
	<path stroke='black'  d='M169.57,584.57  '/></g>
<g fill="none" color="black" stroke="currentColor" stroke-width="1.00" stroke-linecap="butt" stroke-linejoin="miter">
	<path stroke='black'  d='M169.57,120.44  '/>	<g transform="translate(179.33,663.98) rotate(-90)" stroke="none" fill="black" font-family="Helvetica" font-size="30.00"  text-anchor="middle">
		<text><tspan font-family="Helvetica" >osaindica</tspan></text>
	</g>
</g>
<g fill="none" color="black" stroke="currentColor" stroke-width="1.00" stroke-linecap="butt" stroke-linejoin="miter">
</g>
<g fill="none" color="black" stroke="currentColor" stroke-width="1.00" stroke-linecap="butt" stroke-linejoin="miter">
	<path stroke='black'  d='M201.17,584.57  '/></g>
<g fill="none" color="black" stroke="currentColor" stroke-width="1.00" stroke-linecap="butt" stroke-linejoin="miter">
	<path stroke='black'  d='M201.17,120.44  '/>	<g transform="translate(210.93,663.98) rotate(-90)" stroke="none" fill="black" font-family="Helvetica" font-size="30.00"  text-anchor="middle">
		<text><tspan font-family="Helvetica" >osa</tspan></text>
	</g>
</g>
<g fill="none" color="black" stroke="currentColor" stroke-width="1.00" stroke-linecap="butt" stroke-linejoin="miter">
</g>
<g fill="none" color="black" stroke="currentColor" stroke-width="1.00" stroke-linecap="butt" stroke-linejoin="miter">
	<path stroke='black'  d='M232.78,584.57  '/></g>
<g fill="none" color="black" stroke="currentColor" stroke-width="1.00" stroke-linecap="butt" stroke-linejoin="miter">
	<path stroke='black'  d='M232.78,120.44  '/>	<g transform="translate(242.54,663.98) rotate(-90)" stroke="none" fill="black" font-family="Helvetica" font-size="30.00"  text-anchor="middle">
		<text><tspan font-family="Helvetica" >ped</tspan></text>
	</g>
</g>
<g fill="none" color="black" stroke="currentColor" stroke-width="1.00" stroke-linecap="butt" stroke-linejoin="miter">
</g>
<g fill="none" color="black" stroke="currentColor" stroke-width="1.00" stroke-linecap="butt" stroke-linejoin="miter">
	<path stroke='black'  d='M264.38,584.57  '/></g>
<g fill="none" color="black" stroke="currentColor" stroke-width="1.00" stroke-linecap="butt" stroke-linejoin="miter">
	<path stroke='black'  d='M264.38,120.44  '/>	<g transform="translate(274.14,663.98) rotate(-90)" stroke="none" fill="black" font-family="Helvetica" font-size="30.00"  text-anchor="middle">
		<text><tspan font-family="Helvetica" >bdi</tspan></text>
	</g>
</g>
<g fill="none" color="black" stroke="currentColor" stroke-width="1.00" stroke-linecap="butt" stroke-linejoin="miter">
</g>
<g fill="none" color="black" stroke="currentColor" stroke-width="1.00" stroke-linecap="butt" stroke-linejoin="miter">
	<path stroke='black'  d='M295.99,584.57  '/></g>
<g fill="none" color="black" stroke="currentColor" stroke-width="1.00" stroke-linecap="butt" stroke-linejoin="miter">
	<path stroke='black'  d='M295.99,120.44  '/>	<g transform="translate(305.75,663.98) rotate(-90)" stroke="none" fill="black" font-family="Helvetica" font-size="30.00"  text-anchor="middle">
		<text><tspan font-family="Helvetica" >hvu</tspan></text>
	</g>
</g>
<g fill="none" color="black" stroke="currentColor" stroke-width="1.00" stroke-linecap="butt" stroke-linejoin="miter">
</g>
<g fill="none" color="black" stroke="currentColor" stroke-width="1.00" stroke-linecap="butt" stroke-linejoin="miter">
	<path stroke='black'  d='M327.59,584.57  '/></g>
<g fill="none" color="black" stroke="currentColor" stroke-width="1.00" stroke-linecap="butt" stroke-linejoin="miter">
	<path stroke='black'  d='M327.59,120.44  '/>	<g transform="translate(337.35,663.98) rotate(-90)" stroke="none" fill="black" font-family="Helvetica" font-size="30.00"  text-anchor="middle">
		<text><tspan font-family="Helvetica" >ttu</tspan></text>
	</g>
</g>
<g fill="none" color="black" stroke="currentColor" stroke-width="1.00" stroke-linecap="butt" stroke-linejoin="miter">
</g>
<g fill="none" color="black" stroke="currentColor" stroke-width="1.00" stroke-linecap="butt" stroke-linejoin="miter">
	<path stroke='black'  d='M359.19,584.57  '/></g>
<g fill="none" color="black" stroke="currentColor" stroke-width="1.00" stroke-linecap="butt" stroke-linejoin="miter">
	<path stroke='black'  d='M359.19,120.44  '/>	<g transform="translate(368.95,663.98) rotate(-90)" stroke="none" fill="black" font-family="Helvetica" font-size="30.00"  text-anchor="middle">
		<text><tspan font-family="Helvetica" >tae</tspan></text>
	</g>
</g>
<g fill="none" color="black" stroke="currentColor" stroke-width="1.00" stroke-linecap="butt" stroke-linejoin="miter">
</g>
<g fill="none" color="black" stroke="currentColor" stroke-width="1.00" stroke-linecap="butt" stroke-linejoin="miter">
	<path stroke='black'  d='M390.80,584.57  '/></g>
<g fill="none" color="black" stroke="currentColor" stroke-width="1.00" stroke-linecap="butt" stroke-linejoin="miter">
	<path stroke='black'  d='M390.80,120.44  '/>	<g transform="translate(400.55,663.98) rotate(-90)" stroke="none" fill="black" font-family="Helvetica" font-size="30.00"  text-anchor="middle">
		<text><tspan font-family="Helvetica" >oth</tspan></text>
	</g>
</g>
<g fill="none" color="black" stroke="currentColor" stroke-width="1.00" stroke-linecap="butt" stroke-linejoin="miter">
</g>
<g fill="none" color="black" stroke="currentColor" stroke-width="1.00" stroke-linecap="butt" stroke-linejoin="miter">
	<path stroke='black'  d='M422.40,584.57  '/></g>
<g fill="none" color="black" stroke="currentColor" stroke-width="1.00" stroke-linecap="butt" stroke-linejoin="miter">
	<path stroke='black'  d='M422.40,120.44  '/>	<g transform="translate(432.15,663.98) rotate(-90)" stroke="none" fill="black" font-family="Helvetica" font-size="30.00"  text-anchor="middle">
		<text><tspan font-family="Helvetica" >zjn</tspan></text>
	</g>
</g>
<g fill="none" color="black" stroke="currentColor" stroke-width="1.00" stroke-linecap="butt" stroke-linejoin="miter">
</g>
<g fill="none" color="black" stroke="currentColor" stroke-width="1.00" stroke-linecap="butt" stroke-linejoin="miter">
	<path stroke='black'  d='M454.00,584.57  '/></g>
<g fill="none" color="black" stroke="currentColor" stroke-width="1.00" stroke-linecap="butt" stroke-linejoin="miter">
	<path stroke='black'  d='M454.00,120.44  '/>	<g transform="translate(463.75,663.98) rotate(-90)" stroke="none" fill="black" font-family="Helvetica" font-size="30.00"  text-anchor="middle">
		<text><tspan font-family="Helvetica" >cam</tspan></text>
	</g>
</g>
<g fill="none" color="black" stroke="currentColor" stroke-width="1.00" stroke-linecap="butt" stroke-linejoin="miter">
</g>
<g fill="none" color="black" stroke="currentColor" stroke-width="1.00" stroke-linecap="butt" stroke-linejoin="miter">
	<path stroke='black'  d='M485.61,584.57  '/></g>
<g fill="none" color="black" stroke="currentColor" stroke-width="1.00" stroke-linecap="butt" stroke-linejoin="miter">
	<path stroke='black'  d='M485.61,120.44  '/>	<g transform="translate(495.36,663.98) rotate(-90)" stroke="none" fill="black" font-family="Helvetica" font-size="30.00"  text-anchor="middle">
		<text><tspan font-family="Helvetica" >sit</tspan></text>
	</g>
</g>
<g fill="none" color="black" stroke="currentColor" stroke-width="1.00" stroke-linecap="butt" stroke-linejoin="miter">
</g>
<g fill="none" color="black" stroke="currentColor" stroke-width="1.00" stroke-linecap="butt" stroke-linejoin="miter">
	<path stroke='black'  d='M517.21,584.57  '/></g>
<g fill="none" color="black" stroke="currentColor" stroke-width="1.00" stroke-linecap="butt" stroke-linejoin="miter">
	<path stroke='black'  d='M517.21,120.44  '/>	<g transform="translate(526.96,663.98) rotate(-90)" stroke="none" fill="black" font-family="Helvetica" font-size="30.00"  text-anchor="middle">
		<text><tspan font-family="Helvetica" >zma-ph207</tspan></text>
	</g>
</g>
<g fill="none" color="black" stroke="currentColor" stroke-width="1.00" stroke-linecap="butt" stroke-linejoin="miter">
</g>
<g fill="none" color="black" stroke="currentColor" stroke-width="1.00" stroke-linecap="butt" stroke-linejoin="miter">
	<path stroke='black'  d='M548.82,584.57  '/></g>
<g fill="none" color="black" stroke="currentColor" stroke-width="1.00" stroke-linecap="butt" stroke-linejoin="miter">
	<path stroke='black'  d='M548.82,120.44  '/>	<g transform="translate(558.57,663.98) rotate(-90)" stroke="none" fill="black" font-family="Helvetica" font-size="30.00"  text-anchor="middle">
		<text><tspan font-family="Helvetica" >zma</tspan></text>
	</g>
</g>
<g fill="none" color="black" stroke="currentColor" stroke-width="1.00" stroke-linecap="butt" stroke-linejoin="miter">
</g>
<g fill="none" color="black" stroke="currentColor" stroke-width="1.00" stroke-linecap="butt" stroke-linejoin="miter">
	<path stroke='black'  d='M580.42,584.57  '/></g>
<g fill="none" color="black" stroke="currentColor" stroke-width="1.00" stroke-linecap="butt" stroke-linejoin="miter">
	<path stroke='black'  d='M580.42,120.44  '/>	<g transform="translate(590.17,663.98) rotate(-90)" stroke="none" fill="black" font-family="Helvetica" font-size="30.00"  text-anchor="middle">
		<text><tspan font-family="Helvetica" >sbi</tspan></text>
	</g>
</g>
<g fill="none" color="black" stroke="currentColor" stroke-width="1.00" stroke-linecap="butt" stroke-linejoin="miter">
</g>
<g fill="none" color="black" stroke="currentColor" stroke-width="1.00" stroke-linecap="butt" stroke-linejoin="miter">
	<path stroke='black'  d='M612.02,584.57  '/></g>
<g fill="none" color="black" stroke="currentColor" stroke-width="1.00" stroke-linecap="butt" stroke-linejoin="miter">
	<path stroke='black'  d='M612.02,120.44  '/>	<g transform="translate(621.77,663.98) rotate(-90)" stroke="none" fill="black" font-family="Helvetica" font-size="30.00"  text-anchor="middle">
		<text><tspan font-family="Helvetica" >ssp</tspan></text>
	</g>
</g>
<g fill="none" color="black" stroke="currentColor" stroke-width="1.00" stroke-linecap="butt" stroke-linejoin="miter">
</g>
<g fill="none" color="black" stroke="currentColor" stroke-width="1.00" stroke-linecap="butt" stroke-linejoin="miter">
	<path stroke='black'  d='M122.16,526.55  '/></g>
<g fill="none" color="black" stroke="currentColor" stroke-width="1.00" stroke-linecap="butt" stroke-linejoin="miter">
	<path stroke='black'  d='M627.83,526.55  '/>	<g transform="translate(84.04,533.44) rotate(45)" stroke="none" fill="black" font-family="Helvetica" font-size="30.00"  text-anchor="end">
		<text><tspan font-family="Helvetica" >gene family 1</tspan></text>
	</g>
</g>
<g fill="none" color="black" stroke="currentColor" stroke-width="1.00" stroke-linecap="butt" stroke-linejoin="miter">
</g>
<g fill="none" color="black" stroke="currentColor" stroke-width="1.00" stroke-linecap="butt" stroke-linejoin="miter">
	<path stroke='black'  d='M122.16,410.52  '/></g>
<g fill="none" color="black" stroke="currentColor" stroke-width="1.00" stroke-linecap="butt" stroke-linejoin="miter">
	<path stroke='black'  d='M627.83,410.52  '/>	<g transform="translate(84.04,417.41) rotate(45)" stroke="none" fill="black" font-family="Helvetica" font-size="30.00"  text-anchor="end">
		<text><tspan font-family="Helvetica" >gene familiy 2</tspan></text>
	</g>
</g>
<g fill="none" color="black" stroke="currentColor" stroke-width="1.00" stroke-linecap="butt" stroke-linejoin="miter">
</g>
<g fill="none" color="black" stroke="currentColor" stroke-width="1.00" stroke-linecap="butt" stroke-linejoin="miter">
	<path stroke='black'  d='M122.16,294.49  '/></g>
<g fill="none" color="black" stroke="currentColor" stroke-width="1.00" stroke-linecap="butt" stroke-linejoin="miter">
	<path stroke='black'  d='M627.83,294.49  '/>	<g transform="translate(84.04,301.39) rotate(45)" stroke="none" fill="black" font-family="Helvetica" font-size="30.00"  text-anchor="end">
		<text><tspan font-family="Helvetica" >...</tspan></text>
	</g>
</g>
<g fill="none" color="black" stroke="currentColor" stroke-width="1.00" stroke-linecap="butt" stroke-linejoin="miter">
</g>
<g fill="none" color="black" stroke="currentColor" stroke-width="1.00" stroke-linecap="butt" stroke-linejoin="miter">
	<path stroke='black'  d='M122.16,178.46  '/></g>
<g fill="none" color="black" stroke="currentColor" stroke-width="1.00" stroke-linecap="butt" stroke-linejoin="miter">
	<path stroke='black'  d='M627.83,178.46  '/>	<g transform="translate(84.04,185.36) rotate(45)" stroke="none" fill="black" font-family="Helvetica" font-size="30.00"  text-anchor="end">
		<text><tspan font-family="Helvetica" >gene family n</tspan></text>
	</g>
</g>
<g fill="none" color="black" stroke="currentColor" stroke-width="1.00" stroke-linecap="butt" stroke-linejoin="miter">
	<g stroke='none' shape-rendering='crispEdges'>
		<polygon fill = 'rgb(255, 255, 255)' points = '640.47,584.56 665.75,584.56 665.75,580.93 640.47,580.93 '/>
		<polygon fill = 'rgb(255, 255, 255)' points = '640.47,580.94 665.75,580.94 665.75,577.30 640.47,577.30 '/>
		<polygon fill = 'rgb(255, 255, 255)' points = '640.47,577.31 665.75,577.31 665.75,573.68 640.47,573.68 '/>
		<polygon fill = 'rgb(255, 255, 255)' points = '640.47,573.69 665.75,573.69 665.75,570.05 640.47,570.05 '/>
		<polygon fill = 'rgb(255, 255, 255)' points = '640.47,570.06 665.75,570.06 665.75,566.43 640.47,566.43 '/>
		<polygon fill = 'rgb(255, 255, 255)' points = '640.47,566.44 665.75,566.44 665.75,562.80 640.47,562.80 '/>
		<polygon fill = 'rgb(255, 255, 255)' points = '640.47,562.81 665.75,562.81 665.75,559.17 640.47,559.17 '/>
		<polygon fill = 'rgb(255, 255, 255)' points = '640.47,559.18 665.75,559.18 665.75,555.55 640.47,555.55 '/>
		<polygon fill = 'rgb(255, 255, 255)' points = '640.47,555.56 665.75,555.56 665.75,551.92 640.47,551.92 '/>
		<polygon fill = 'rgb(255, 255, 255)' points = '640.47,551.93 665.75,551.93 665.75,548.30 640.47,548.30 '/>
		<polygon fill = 'rgb(255, 255, 255)' points = '640.47,548.31 665.75,548.31 665.75,544.67 640.47,544.67 '/>
		<polygon fill = 'rgb(255, 255, 255)' points = '640.47,544.68 665.75,544.68 665.75,541.04 640.47,541.04 '/>
		<polygon fill = 'rgb(255, 255, 255)' points = '640.47,541.05 665.75,541.05 665.75,537.42 640.47,537.42 '/>
		<polygon fill = 'rgb(255, 255, 255)' points = '640.47,537.43 665.75,537.43 665.75,533.79 640.47,533.79 '/>
		<polygon fill = 'rgb(255, 255, 255)' points = '640.47,533.80 665.75,533.80 665.75,530.17 640.47,530.17 '/>
		<polygon fill = 'rgb(255, 255, 255)' points = '640.47,530.18 665.75,530.18 665.75,526.54 640.47,526.54 '/>
		<polygon fill = 'rgb(255, 255, 255)' points = '640.47,526.55 665.75,526.55 665.75,522.91 640.47,522.91 '/>
		<polygon fill = 'rgb(255, 255, 255)' points = '640.47,522.92 665.75,522.92 665.75,519.29 640.47,519.29 '/>
		<polygon fill = 'rgb(255, 255, 255)' points = '640.47,519.30 665.75,519.30 665.75,515.66 640.47,515.66 '/>
		<polygon fill = 'rgb(255, 255, 255)' points = '640.47,515.67 665.75,515.67 665.75,512.04 640.47,512.04 '/>
		<polygon fill = 'rgb(255, 255, 255)' points = '640.47,512.05 665.75,512.05 665.75,508.41 640.47,508.41 '/>
		<polygon fill = 'rgb(255, 255, 255)' points = '640.47,508.42 665.75,508.42 665.75,504.78 640.47,504.78 '/>
		<polygon fill = 'rgb(255, 255, 255)' points = '640.47,504.79 665.75,504.79 665.75,501.16 640.47,501.16 '/>
		<polygon fill = 'rgb(255, 255, 255)' points = '640.47,501.17 665.75,501.17 665.75,497.53 640.47,497.53 '/>
		<polygon fill = 'rgb(255, 255, 255)' points = '640.47,497.54 665.75,497.54 665.75,493.91 640.47,493.91 '/>
		<polygon fill = 'rgb(255, 255, 255)' points = '640.47,493.92 665.75,493.92 665.75,490.28 640.47,490.28 '/>
		<polygon fill = 'rgb(255, 255, 255)' points = '640.47,490.29 665.75,490.29 665.75,486.65 640.47,486.65 '/>
		<polygon fill = 'rgb(255, 255, 255)' points = '640.47,486.66 665.75,486.66 665.75,483.03 640.47,483.03 '/>
		<polygon fill = 'rgb(255, 255, 255)' points = '640.47,483.04 665.75,483.04 665.75,479.40 640.47,479.40 '/>
		<polygon fill = 'rgb(255, 255, 255)' points = '640.47,479.41 665.75,479.41 665.75,475.78 640.47,475.78 '/>
		<polygon fill = 'rgb(255, 255, 255)' points = '640.47,475.79 665.75,475.79 665.75,472.15 640.47,472.15 '/>
		<polygon fill = 'rgb(255, 255, 255)' points = '640.47,472.16 665.75,472.16 665.75,468.52 640.47,468.52 '/>
		<polygon fill = 'rgb(208, 255, 208)' points = '640.47,468.53 665.75,468.53 665.75,464.90 640.47,464.90 '/>
		<polygon fill = 'rgb(208, 255, 208)' points = '640.47,464.91 665.75,464.91 665.75,461.27 640.47,461.27 '/>
		<polygon fill = 'rgb(208, 255, 208)' points = '640.47,461.28 665.75,461.28 665.75,457.65 640.47,457.65 '/>
		<polygon fill = 'rgb(208, 255, 208)' points = '640.47,457.66 665.75,457.66 665.75,454.02 640.47,454.02 '/>
		<polygon fill = 'rgb(208, 255, 208)' points = '640.47,454.03 665.75,454.03 665.75,450.40 640.47,450.40 '/>
		<polygon fill = 'rgb(208, 255, 208)' points = '640.47,450.41 665.75,450.41 665.75,446.77 640.47,446.77 '/>
		<polygon fill = 'rgb(208, 255, 208)' points = '640.47,446.78 665.75,446.78 665.75,443.14 640.47,443.14 '/>
		<polygon fill = 'rgb(208, 255, 208)' points = '640.47,443.15 665.75,443.15 665.75,439.52 640.47,439.52 '/>
		<polygon fill = 'rgb(208, 255, 208)' points = '640.47,439.53 665.75,439.53 665.75,435.89 640.47,435.89 '/>
		<polygon fill = 'rgb(208, 255, 208)' points = '640.47,435.90 665.75,435.90 665.75,432.27 640.47,432.27 '/>
		<polygon fill = 'rgb(208, 255, 208)' points = '640.47,432.28 665.75,432.28 665.75,428.64 640.47,428.64 '/>
		<polygon fill = 'rgb(208, 255, 208)' points = '640.47,428.65 665.75,428.65 665.75,425.01 640.47,425.01 '/>
		<polygon fill = 'rgb(208, 255, 208)' points = '640.47,425.02 665.75,425.02 665.75,421.39 640.47,421.39 '/>
		<polygon fill = 'rgb(208, 255, 208)' points = '640.47,421.40 665.75,421.40 665.75,417.76 640.47,417.76 '/>
		<polygon fill = 'rgb(208, 255, 208)' points = '640.47,417.77 665.75,417.77 665.75,414.14 640.47,414.14 '/>
		<polygon fill = 'rgb(208, 255, 208)' points = '640.47,414.15 665.75,414.15 665.75,410.51 640.47,410.51 '/>
		<polygon fill = 'rgb(208, 255, 208)' points = '640.47,410.52 665.75,410.52 665.75,406.88 640.47,406.88 '/>
		<polygon fill = 'rgb(208, 255, 208)' points = '640.47,406.89 665.75,406.89 665.75,403.26 640.47,403.26 '/>
		<polygon fill = 'rgb(208, 255, 208)' points = '640.47,403.27 665.75,403.27 665.75,399.63 640.47,399.63 '/>
		<polygon fill = 'rgb(208, 255, 208)' points = '640.47,399.64 665.75,399.64 665.75,396.01 640.47,396.01 '/>
		<polygon fill = 'rgb(208, 255, 208)' points = '640.47,396.02 665.75,396.02 665.75,392.38 640.47,392.38 '/>
		<polygon fill = 'rgb(208, 255, 208)' points = '640.47,392.39 665.75,392.39 665.75,388.75 640.47,388.75 '/>
		<polygon fill = 'rgb(208, 255, 208)' points = '640.47,388.76 665.75,388.76 665.75,385.13 640.47,385.13 '/>
		<polygon fill = 'rgb(208, 255, 208)' points = '640.47,385.14 665.75,385.14 665.75,381.50 640.47,381.50 '/>
		<polygon fill = 'rgb(208, 255, 208)' points = '640.47,381.51 665.75,381.51 665.75,377.88 640.47,377.88 '/>
		<polygon fill = 'rgb(208, 255, 208)' points = '640.47,377.89 665.75,377.89 665.75,374.25 640.47,374.25 '/>
		<polygon fill = 'rgb(208, 255, 208)' points = '640.47,374.26 665.75,374.26 665.75,370.62 640.47,370.62 '/>
		<polygon fill = 'rgb(208, 255, 208)' points = '640.47,370.63 665.75,370.63 665.75,367.00 640.47,367.00 '/>
		<polygon fill = 'rgb(208, 255, 208)' points = '640.47,367.01 665.75,367.01 665.75,363.37 640.47,363.37 '/>
		<polygon fill = 'rgb(208, 255, 208)' points = '640.47,363.38 665.75,363.38 665.75,359.75 640.47,359.75 '/>
		<polygon fill = 'rgb(208, 255, 208)' points = '640.47,359.76 665.75,359.76 665.75,356.12 640.47,356.12 '/>
		<polygon fill = 'rgb(208, 255, 208)' points = '640.47,356.13 665.75,356.13 665.75,352.49 640.47,352.49 '/>
		<polygon fill = 'rgb(147, 255, 147)' points = '640.47,352.50 665.75,352.50 665.75,348.87 640.47,348.87 '/>
		<polygon fill = 'rgb(147, 255, 147)' points = '640.47,348.88 665.75,348.88 665.75,345.24 640.47,345.24 '/>
		<polygon fill = 'rgb(147, 255, 147)' points = '640.47,345.25 665.75,345.25 665.75,341.62 640.47,341.62 '/>
		<polygon fill = 'rgb(147, 255, 147)' points = '640.47,341.63 665.75,341.63 665.75,337.99 640.47,337.99 '/>
		<polygon fill = 'rgb(147, 255, 147)' points = '640.47,338.00 665.75,338.00 665.75,334.37 640.47,334.37 '/>
		<polygon fill = 'rgb(147, 255, 147)' points = '640.47,334.38 665.75,334.38 665.75,330.74 640.47,330.74 '/>
		<polygon fill = 'rgb(147, 255, 147)' points = '640.47,330.75 665.75,330.75 665.75,327.11 640.47,327.11 '/>
		<polygon fill = 'rgb(147, 255, 147)' points = '640.47,327.12 665.75,327.12 665.75,323.49 640.47,323.49 '/>
		<polygon fill = 'rgb(147, 255, 147)' points = '640.47,323.50 665.75,323.50 665.75,319.86 640.47,319.86 '/>
		<polygon fill = 'rgb(147, 255, 147)' points = '640.47,319.87 665.75,319.87 665.75,316.24 640.47,316.24 '/>
		<polygon fill = 'rgb(147, 255, 147)' points = '640.47,316.25 665.75,316.25 665.75,312.61 640.47,312.61 '/>
		<polygon fill = 'rgb(147, 255, 147)' points = '640.47,312.62 665.75,312.62 665.75,308.98 640.47,308.98 '/>
		<polygon fill = 'rgb(147, 255, 147)' points = '640.47,308.99 665.75,308.99 665.75,305.36 640.47,305.36 '/>
		<polygon fill = 'rgb(147, 255, 147)' points = '640.47,305.37 665.75,305.37 665.75,301.73 640.47,301.73 '/>
		<polygon fill = 'rgb(147, 255, 147)' points = '640.47,301.74 665.75,301.74 665.75,298.11 640.47,298.11 '/>
		<polygon fill = 'rgb(147, 255, 147)' points = '640.47,298.12 665.75,298.12 665.75,294.48 640.47,294.48 '/>
		<polygon fill = 'rgb(147, 255, 147)' points = '640.47,294.49 665.75,294.49 665.75,290.85 640.47,290.85 '/>
		<polygon fill = 'rgb(147, 255, 147)' points = '640.47,290.86 665.75,290.86 665.75,287.23 640.47,287.23 '/>
		<polygon fill = 'rgb(147, 255, 147)' points = '640.47,287.24 665.75,287.24 665.75,283.60 640.47,283.60 '/>
		<polygon fill = 'rgb(147, 255, 147)' points = '640.47,283.61 665.75,283.61 665.75,279.98 640.47,279.98 '/>
		<polygon fill = 'rgb(147, 255, 147)' points = '640.47,279.99 665.75,279.99 665.75,276.35 640.47,276.35 '/>
		<polygon fill = 'rgb(147, 255, 147)' points = '640.47,276.36 665.75,276.36 665.75,272.72 640.47,272.72 '/>
		<polygon fill = 'rgb(147, 255, 147)' points = '640.47,272.73 665.75,272.73 665.75,269.10 640.47,269.10 '/>
		<polygon fill = 'rgb(147, 255, 147)' points = '640.47,269.11 665.75,269.11 665.75,265.47 640.47,265.47 '/>
		<polygon fill = 'rgb(147, 255, 147)' points = '640.47,265.48 665.75,265.48 665.75,261.85 640.47,261.85 '/>
		<polygon fill = 'rgb(147, 255, 147)' points = '640.47,261.86 665.75,261.86 665.75,258.22 640.47,258.22 '/>
		<polygon fill = 'rgb(147, 255, 147)' points = '640.47,258.23 665.75,258.23 665.75,254.59 640.47,254.59 '/>
		<polygon fill = 'rgb(147, 255, 147)' points = '640.47,254.60 665.75,254.60 665.75,250.97 640.47,250.97 '/>
		<polygon fill = 'rgb(147, 255, 147)' points = '640.47,250.98 665.75,250.98 665.75,247.34 640.47,247.34 '/>
		<polygon fill = 'rgb(147, 255, 147)' points = '640.47,247.35 665.75,247.35 665.75,243.72 640.47,243.72 '/>
		<polygon fill = 'rgb(147, 255, 147)' points = '640.47,243.73 665.75,243.73 665.75,240.09 640.47,240.09 '/>
		<polygon fill = 'rgb(147, 255, 147)' points = '640.47,240.10 665.75,240.10 665.75,236.46 640.47,236.46 '/>
		<polygon fill = 'rgb(  0, 255,   0)' points = '640.47,236.47 665.75,236.47 665.75,232.84 640.47,232.84 '/>
		<polygon fill = 'rgb(  0, 255,   0)' points = '640.47,232.85 665.75,232.85 665.75,229.21 640.47,229.21 '/>
		<polygon fill = 'rgb(  0, 255,   0)' points = '640.47,229.22 665.75,229.22 665.75,225.59 640.47,225.59 '/>
		<polygon fill = 'rgb(  0, 255,   0)' points = '640.47,225.60 665.75,225.60 665.75,221.96 640.47,221.96 '/>
		<polygon fill = 'rgb(  0, 255,   0)' points = '640.47,221.97 665.75,221.97 665.75,218.34 640.47,218.34 '/>
		<polygon fill = 'rgb(  0, 255,   0)' points = '640.47,218.35 665.75,218.35 665.75,214.71 640.47,214.71 '/>
		<polygon fill = 'rgb(  0, 255,   0)' points = '640.47,214.72 665.75,214.72 665.75,211.08 640.47,211.08 '/>
		<polygon fill = 'rgb(  0, 255,   0)' points = '640.47,211.09 665.75,211.09 665.75,207.46 640.47,207.46 '/>
		<polygon fill = 'rgb(  0, 255,   0)' points = '640.47,207.47 665.75,207.47 665.75,203.83 640.47,203.83 '/>
		<polygon fill = 'rgb(  0, 255,   0)' points = '640.47,203.84 665.75,203.84 665.75,200.21 640.47,200.21 '/>
		<polygon fill = 'rgb(  0, 255,   0)' points = '640.47,200.22 665.75,200.22 665.75,196.58 640.47,196.58 '/>
		<polygon fill = 'rgb(  0, 255,   0)' points = '640.47,196.59 665.75,196.59 665.75,192.95 640.47,192.95 '/>
		<polygon fill = 'rgb(  0, 255,   0)' points = '640.47,192.96 665.75,192.96 665.75,189.33 640.47,189.33 '/>
		<polygon fill = 'rgb(  0, 255,   0)' points = '640.47,189.34 665.75,189.34 665.75,185.70 640.47,185.70 '/>
		<polygon fill = 'rgb(  0, 255,   0)' points = '640.47,185.71 665.75,185.71 665.75,182.08 640.47,182.08 '/>
		<polygon fill = 'rgb(  0, 255,   0)' points = '640.47,182.09 665.75,182.09 665.75,178.45 640.47,178.45 '/>
		<polygon fill = 'rgb(  0, 255,   0)' points = '640.47,178.46 665.75,178.46 665.75,174.82 640.47,174.82 '/>
		<polygon fill = 'rgb(  0, 255,   0)' points = '640.47,174.83 665.75,174.83 665.75,171.20 640.47,171.20 '/>
		<polygon fill = 'rgb(  0, 255,   0)' points = '640.47,171.21 665.75,171.21 665.75,167.57 640.47,167.57 '/>
		<polygon fill = 'rgb(  0, 255,   0)' points = '640.47,167.58 665.75,167.58 665.75,163.95 640.47,163.95 '/>
		<polygon fill = 'rgb(  0, 255,   0)' points = '640.47,163.96 665.75,163.96 665.75,160.32 640.47,160.32 '/>
		<polygon fill = 'rgb(  0, 255,   0)' points = '640.47,160.33 665.75,160.33 665.75,156.69 640.47,156.69 '/>
		<polygon fill = 'rgb(  0, 255,   0)' points = '640.47,156.70 665.75,156.70 665.75,153.07 640.47,153.07 '/>
		<polygon fill = 'rgb(  0, 255,   0)' points = '640.47,153.08 665.75,153.08 665.75,149.44 640.47,149.44 '/>
		<polygon fill = 'rgb(  0, 255,   0)' points = '640.47,149.45 665.75,149.45 665.75,145.82 640.47,145.82 '/>
		<polygon fill = 'rgb(  0, 255,   0)' points = '640.47,145.83 665.75,145.83 665.75,142.19 640.47,142.19 '/>
		<polygon fill = 'rgb(  0, 255,   0)' points = '640.47,142.20 665.75,142.20 665.75,138.56 640.47,138.56 '/>
		<polygon fill = 'rgb(  0, 255,   0)' points = '640.47,138.57 665.75,138.57 665.75,134.94 640.47,134.94 '/>
		<polygon fill = 'rgb(  0, 255,   0)' points = '640.47,134.95 665.75,134.95 665.75,131.31 640.47,131.31 '/>
		<polygon fill = 'rgb(  0, 255,   0)' points = '640.47,131.32 665.75,131.32 665.75,127.69 640.47,127.69 '/>
		<polygon fill = 'rgb(  0, 255,   0)' points = '640.47,127.70 665.75,127.70 665.75,124.06 640.47,124.06 '/>
		<polygon fill = 'rgb(  0, 255,   0)' points = '640.47,124.07 665.75,124.07 665.75,120.44 640.47,120.44 '/>
	</g>
</g>
<g fill="none" color="black" stroke="currentColor" stroke-width="1.00" stroke-linecap="butt" stroke-linejoin="miter">
	<path stroke='black'  d='M640.47,584.56 L665.75,584.56 L665.75,120.44 L640.47,120.44 L640.47,584.56 Z  '/></g>
<g fill="none" color="black" stroke="currentColor" stroke-width="1.00" stroke-linecap="butt" stroke-linejoin="miter">
</g>
<g fill="none" color="black" stroke="currentColor" stroke-width="1.00" stroke-linecap="butt" stroke-linejoin="miter">
	<path stroke='black'  d='M665.75,584.56 L620.75,584.56  '/>	<g transform="translate(644.76,526.81)" stroke="none" fill="black" font-family="Helvetica" font-size="30.00"  text-anchor="start">
		<text><tspan font-family="Helvetica" > 0</tspan></text>
	</g>
</g>
<g fill="none" color="black" stroke="currentColor" stroke-width="1.00" stroke-linecap="butt" stroke-linejoin="miter">
	<path stroke='black'  d='M640.47,584.56 L685.47,584.56 M665.75,468.53 L620.75,468.53  '/>	<g transform="translate(644.76,410.78)" stroke="none" fill="black" font-family="Helvetica" font-size="30.00"  text-anchor="start">
		<text><tspan font-family="Helvetica" > 1</tspan></text>
	</g>
</g>
<g fill="none" color="black" stroke="currentColor" stroke-width="1.00" stroke-linecap="butt" stroke-linejoin="miter">
	<path stroke='black'  d='M640.47,468.53 L685.47,468.53 M665.75,352.50 L620.75,352.50  '/>	<g transform="translate(644.76,294.75)" stroke="none" fill="black" font-family="Helvetica" font-size="30.00"  text-anchor="start">
		<text><tspan font-family="Helvetica" > 2</tspan></text>
	</g>
</g>
<g fill="none" color="black" stroke="currentColor" stroke-width="1.00" stroke-linecap="butt" stroke-linejoin="miter">
	<path stroke='black'  d='M640.47,352.50 L685.47,352.50 M665.75,236.47 L620.75,236.47  '/>	<g transform="translate(644.76,178.72)" stroke="none" fill="black" font-family="Helvetica" font-size="30.00"  text-anchor="start">
		<text><tspan font-family="Helvetica" > 3</tspan></text>
	</g>
</g>
<g fill="none" color="black" stroke="currentColor" stroke-width="1.00" stroke-linecap="butt" stroke-linejoin="miter">
	<path stroke='black'  d='M640.47,236.47 L685.47,236.47  '/>	<g transform="translate(749.00,352.50) rotate(270)" stroke="none" fill="black" font-family="Helvetica" font-size="30.00"  text-anchor="middle">
		<text><tspan font-family="Helvetica" >Number of paralogs</tspan></text>
	</g>
</g>
<g fill="none" color="black" stroke="currentColor" stroke-width="1.00" stroke-linecap="butt" stroke-linejoin="miter">
</g>
</g>
</svg>

